<?xml version="1.0" encoding="UTF-8" standalone="no"?>
<svg
   xmlns:dc="http://purl.org/dc/elements/1.1/"
   xmlns:cc="http://creativecommons.org/ns#"
   xmlns:rdf="http://www.w3.org/1999/02/22-rdf-syntax-ns#"
   xmlns:svg="http://www.w3.org/2000/svg"
   xmlns="http://www.w3.org/2000/svg"
   xmlns:sodipodi="http://sodipodi.sourceforge.net/DTD/sodipodi-0.dtd"
   xmlns:inkscape="http://www.inkscape.org/namespaces/inkscape"
   version="1.1"
   width="92"
   height="92"
   id="svg1"
   sodipodi:version="0.32"
   inkscape:version="0.48.4 r9939"
   sodipodi:docname="exploded.svg"
   inkscape:export-filename="/home/p264360/Dropbox/dev/minesweeper/icons/exploded.png"
   inkscape:export-xdpi="41.09"
   inkscape:export-ydpi="41.09">
  <defs
     id="defs24" />
  <metadata
     id="metadata23">
    <rdf:RDF>
      <cc:Work
         rdf:about="">
        <dc:format>image/svg+xml</dc:format>
        <dc:type
           rdf:resource="http://purl.org/dc/dcmitype/StillImage" />
        <dc:title></dc:title>
      </cc:Work>
    </rdf:RDF>
  </metadata>
  <sodipodi:namedview
     id="base"
     pagecolor="#ffffff"
     bordercolor="#666666"
     borderopacity="1.0"
     inkscape:pageopacity="0.0"
     inkscape:pageshadow="2"
     inkscape:zoom="2.8284271"
     inkscape:cx="6.4811225"
     inkscape:cy="40.238815"
     inkscape:window-width="1278"
     inkscape:window-height="998"
     inkscape:window-x="1920"
     inkscape:window-y="176"
     inkscape:current-layer="svg1"
     showgrid="false"
     fit-margin-top="0"
     fit-margin-left="0"
     fit-margin-right="0"
     fit-margin-bottom="0"
     inkscape:window-maximized="0"
     inkscape:snap-nodes="true"
     inkscape:snap-bbox="false">
    <inkscape:grid
       type="xygrid"
       id="grid3007"
       empspacing="5"
       visible="true"
       enabled="true"
       snapvisiblegridlinesonly="true" />
  </sodipodi:namedview>
  <linearGradient
     id="paint"
     gradientUnits="userSpaceOnUse"
     x1="14.5"
     y1="99"
     x2="119.5"
     y2="99">
    <stop
       offset="0"
       style="stop-color:#DA1800"
       id="stop17" />
    <stop
       offset="0.33"
       style="stop-color:#B42D2D"
       id="stop18" />
    <stop
       offset="0.66"
       style="stop-color:#FA1818"
       id="stop19" />
    <stop
       offset="1"
       style="stop-color:#B42D2D"
       id="stop20" />
  </linearGradient>
  <rect
     style="fill:#d3d7cf;fill-opacity:1;fill-rule:evenodd;stroke:none"
     id="rect2991"
     width="92"
     height="92"
     x="0"
     y="0"
     ry="8"
     inkscape:export-xdpi="41.09"
     inkscape:export-ydpi="41.09" />
  <path
     transform="matrix(1.4,0,0,1.4,-1060,-563)"
     d="m 805,435 a 15,15 0 1 1 -30,0 15,15 0 1 1 30,0 z"
     sodipodi:ry="15"
     sodipodi:rx="15"
     sodipodi:cy="435"
     sodipodi:cx="790"
     id="path2999"
     style="fill:#cc0000;fill-opacity:1;stroke:none"
     sodipodi:type="arc" />
  <rect
     style="fill:#cc0000;fill-opacity:1;stroke:none"
     id="rect3001"
     width="8"
     height="64"
     x="42.000004"
     y="14"
     rx="4.5999999"
     ry="4.5999999" />
  <rect
     ry="4.5999999"
     rx="4.5999999"
     y="-48.837173"
     x="58.837166"
     height="64"
     width="8"
     id="rect3013"
     style="fill:#cc0000;fill-opacity:1;stroke:none"
     transform="matrix(0.5,0.8660254,-0.8660254,0.5,0,0)" />
  <rect
     transform="matrix(-0.5,0.8660254,-0.8660254,-0.5,0,0)"
     style="fill:#cc0000;fill-opacity:1;stroke:none"
     id="rect3015"
     width="8"
     height="64"
     x="12.837167"
     y="-94.837166"
     rx="4.5999999"
     ry="4.5999999" />
</svg>
