<?xml version="1.0" encoding="UTF-8" standalone="no"?>
<svg
   xmlns:dc="http://purl.org/dc/elements/1.1/"
   xmlns:cc="http://creativecommons.org/ns#"
   xmlns:rdf="http://www.w3.org/1999/02/22-rdf-syntax-ns#"
   xmlns:svg="http://www.w3.org/2000/svg"
   xmlns="http://www.w3.org/2000/svg"
   xmlns:sodipodi="http://sodipodi.sourceforge.net/DTD/sodipodi-0.dtd"
   xmlns:inkscape="http://www.inkscape.org/namespaces/inkscape"
   version="1.1"
   width="92"
   height="92"
   id="svg9373"
   inkscape:version="0.48.4 r9939"
   sodipodi:docname="incorrect.svg"
   inkscape:export-filename="/home/ke/Dropbox/dev/minesweeper/icons/incorrect.png"
   inkscape:export-xdpi="41.09"
   inkscape:export-ydpi="41.09">
  <metadata
     id="metadata9418">
    <rdf:RDF>
      <cc:Work
         rdf:about="">
        <dc:format>image/svg+xml</dc:format>
        <dc:type
           rdf:resource="http://purl.org/dc/dcmitype/StillImage" />
        <dc:title></dc:title>
      </cc:Work>
    </rdf:RDF>
  </metadata>
  <defs
     id="defs9416" />
  <sodipodi:namedview
     pagecolor="#ffffff"
     bordercolor="#666666"
     borderopacity="1"
     objecttolerance="10"
     gridtolerance="10"
     guidetolerance="10"
     inkscape:pageopacity="0"
     inkscape:pageshadow="2"
     inkscape:window-width="1920"
     inkscape:window-height="1032"
     id="namedview9414"
     showgrid="false"
     inkscape:snap-nodes="false"
     inkscape:snap-bbox="true"
     inkscape:zoom="1"
     inkscape:cx="-257.89852"
     inkscape:cy="12.748665"
     inkscape:window-x="0"
     inkscape:window-y="24"
     inkscape:window-maximized="0"
     inkscape:current-layer="svg9373">
    <inkscape:grid
       type="xygrid"
       id="grid9641"
       empspacing="5"
       visible="true"
       enabled="true"
       snapvisiblegridlinesonly="true" />
  </sodipodi:namedview>
  <linearGradient
     id="paint"
     gradientUnits="userSpaceOnUse"
     x1="14.5"
     y1="99"
     x2="119.5"
     y2="99">
    <stop
       offset="0"
       style="stop-color:#DA1800"
       id="stop9404" />
    <stop
       offset="0.33"
       style="stop-color:#B42D2D"
       id="stop9406" />
    <stop
       offset="0.66"
       style="stop-color:#FA1818"
       id="stop9408" />
    <stop
       offset="1"
       style="stop-color:#B42D2D"
       id="stop9410" />
  </linearGradient>
  <rect
     style="fill:#888a85;fill-opacity:1;fill-rule:evenodd;stroke:none"
     id="rect2991"
     width="92"
     height="92"
     x="0"
     y="0"
     ry="8" />
  <path
     style="fill:#cc0000;fill-opacity:1;stroke-width:1;stroke-miterlimit:4"
     d="M 21.034127,14.175024 30.032593,14 l 0,3.104056 L 71.052192,34.741065 29.988254,52.378074 29.945078,78 l -8.99727,0 z"
     id="path9621"
     inkscape:connector-curvature="0"
     sodipodi:nodetypes="cccccccc" />
</svg>
